[
{
    "model": "agenda.comissao",
    "pk": 1,
    "fields": {
        "origem": "CA",
        "nome": "Comiss\u00e3o de Constitui\u00e7\u00e3o, Justi\u00e7a e cidadania",
        "link": ""
    }
},
{
    "model": "agenda.comissao",
    "pk": 2,
    "fields": {
        "origem": "SE",
        "nome": "Comiss\u00e3o de Ci\u00eancia, Tecnologia, Inova\u00e7\u00e3o, Comunica\u00e7\u00e3o e Inform\u00e1tica",
        "link": ""
    }
},
{
    "model": "agenda.comissao",
    "pk": 3,
    "fields": {
        "origem": "CA",
        "nome": "Comiss\u00e3o de Transpar\u00eancia, Governan\u00e7a, Fiscaliza\u00e7\u00e3o e Controle e Defesa do Consumidor",
        "link": ""
    }
},
{
    "model": "agenda.comissao",
    "pk": 4,
    "fields": {
        "origem": "SE",
        "nome": "Comiss\u00e3o de Assuntos Econ\u00f4micos",
        "link": ""
    }
},
{
    "model": "agenda.comissao",
    "pk": 5,
    "fields": {
        "origem": "CA",
        "nome": "Comiss\u00e3o Especial sobre o Banco Central Regular Moedas Virtuais",
        "link": ""
    }
},
{
    "model": "agenda.comissao",
    "pk": 6,
    "fields": {
        "origem": "CA",
        "nome": "Comiss\u00e3o Especial sobre o Tratamento e Prote\u00e7\u00e3o de Dados Pessoais",
        "link": ""
    }
},
{
    "model": "agenda.comissao",
    "pk": 7,
    "fields": {
        "origem": "SE",
        "nome": "Comiss\u00e3o de Rela\u00e7\u00f5es Exteriores e de Defesa Nacional",
        "link": ""
    }
},
{
    "model": "agenda.comissao",
    "pk": 8,
    "fields": {
        "origem": "CA",
        "nome": "Comiss\u00e3o de Seguridade Social e Fam\u00edlia",
        "link": ""
    }
}
]
