<?xml version="1.0" encoding="UTF-8"?>
<svg width="146px" height="110px" viewBox="0 0 146 110" version="1.1" xmlns="http://www.w3.org/2000/svg" xmlns:xlink="http://www.w3.org/1999/xlink">
    <!-- Generator: Sketch 44.1 (41455) - http://www.bohemiancoding.com/sketch -->
    <title>eye51icon</title>
    <desc>Created with Sketch.</desc>
    <defs></defs>
    <g id="Symbols" stroke="none" stroke-width="1" fill="none" fill-rule="evenodd">
        <g id="eye51" fill="#000000">
            <g id="Group">
                <path d="M103.062,65.225 C107.353,59.006 109.5,52.121 109.5,44.572 C109.5,42.454 109.283,40.173 108.848,37.728 L86.036,78.627 C93.096,75.912 98.771,71.443 103.062,65.225 L103.062,65.225 Z" id="Shape"></path>
                <path d="M106.404,8.886 C106.459,8.778 106.484,8.533 106.484,8.153 C106.484,7.229 106.05,6.497 105.179,5.951 C105.017,5.843 104.488,5.53 103.591,5.013 C102.695,4.498 101.839,3.995 101.025,3.506 C100.211,3.017 99.316,2.515 98.337,1.999 C97.359,1.483 96.518,1.062 95.813,0.736 C95.106,0.41 94.617,0.247 94.346,0.247 C93.368,0.247 92.608,0.682 92.065,1.551 L87.666,9.454 C82.724,8.531 77.835,8.069 73.001,8.069 C58.39,8.069 44.92,11.763 32.59,19.15 C20.26,26.538 9.941,36.613 1.63,49.377 C0.543,51.062 0,52.936 0,55 C0,57.064 0.543,58.938 1.63,60.621 C6.409,68.062 12.072,74.717 18.617,80.582 C25.162,86.449 32.318,91.146 40.085,94.678 C37.695,98.751 36.5,101.114 36.5,101.766 C36.5,102.744 36.935,103.504 37.804,104.047 C44.43,107.85 48.069,109.75 48.721,109.75 C49.698,109.75 50.459,109.314 51.002,108.445 L54.994,101.195 C60.752,90.93 69.333,75.531 80.74,55 C92.146,34.469 100.701,19.097 106.404,8.886 L106.404,8.886 Z M45.218,85.553 C31.096,79.198 19.499,69.014 10.429,55.001 C18.685,42.182 29.032,32.595 41.47,26.241 C38.157,31.889 36.5,38 36.5,44.572 C36.5,50.384 37.83,55.896 40.492,61.111 C43.154,66.325 46.847,70.642 51.573,74.064 L45.218,85.553 L45.218,85.553 Z M73,27.624 C68.329,27.624 64.336,29.281 61.023,32.594 C57.709,35.908 56.053,39.9 56.053,44.571 C56.053,45.658 55.672,46.581 54.912,47.342 C54.151,48.103 53.228,48.483 52.142,48.483 C51.055,48.483 50.132,48.102 49.371,47.342 C48.61,46.581 48.23,45.657 48.23,44.571 C48.23,37.782 50.661,31.956 55.522,27.095 C60.383,22.234 66.208,19.803 72.998,19.803 C74.084,19.803 75.008,20.184 75.769,20.944 C76.529,21.704 76.91,22.628 76.91,23.714 C76.91,24.801 76.529,25.724 75.771,26.483 C75.011,27.244 74.086,27.624 73,27.624 Z" id="Shape"></path>
                <path d="M144.37,49.377 C141.273,44.218 137.349,39.22 132.598,34.386 C127.847,29.552 122.889,25.398 117.729,21.921 L112.596,31.046 C121.666,37.292 129.325,45.277 135.571,54.999 C129,65.21 120.811,73.548 111.009,80.011 C101.204,86.477 90.545,90.196 79.03,91.173 L73,101.928 C85.059,101.928 96.451,99.348 107.178,94.188 C117.905,89.03 127.343,81.778 135.49,72.436 C139.292,68.036 142.252,64.098 144.371,60.622 C145.457,58.775 146,56.9 146,55 C146,53.099 145.457,51.225 144.37,49.377 L144.37,49.377 Z" id="Shape"></path>
            </g>
        </g>
    </g>
</svg>