<?xml version="1.0" encoding="UTF-8"?>
<svg width="126px" height="126px" viewBox="0 0 126 126" version="1.1" xmlns="http://www.w3.org/2000/svg" xmlns:xlink="http://www.w3.org/1999/xlink">
    <!-- Generator: Sketch 44.1 (41455) - http://www.bohemiancoding.com/sketch -->
    <title>smileicon</title>
    <desc>Created with Sketch.</desc>
    <defs></defs>
    <g id="Symbols" stroke="none" stroke-width="1" fill="none" fill-rule="evenodd">
        <g id="smile" fill="#50E3C2">
            <g id="Group">
                <path d="M117.18,31.592 C111.585,22.006 103.995,14.416 94.409,8.821 C84.82,3.226 74.353,0.429 63.001,0.429 C51.649,0.429 41.179,3.226 31.593,8.821 C22.006,14.415 14.416,22.005 8.821,31.592 C3.225,41.179 0.428,51.649 0.428,63 C0.428,74.352 3.226,84.82 8.82,94.408 C14.415,103.993 22.005,111.584 31.592,117.179 C41.179,122.773 51.648,125.57 63,125.57 C74.352,125.57 84.822,122.773 94.408,117.179 C103.994,111.584 111.584,103.993 117.179,94.408 C122.773,84.82 125.57,74.351 125.57,63 C125.57,51.648 122.773,41.178 117.18,31.592 L117.18,31.592 Z M110.988,83.246 C108.217,89.682 104.511,95.223 99.867,99.866 C95.224,104.51 89.683,108.217 83.247,110.986 C76.81,113.757 70.062,115.142 63.001,115.142 C55.94,115.142 49.192,113.756 42.755,110.986 C36.319,108.216 30.778,104.509 26.134,99.866 C21.491,95.222 17.784,89.683 15.013,83.246 C12.243,76.81 10.858,70.06 10.858,63 C10.858,55.939 12.243,49.191 15.013,42.754 C17.783,36.318 21.49,30.778 26.134,26.133 C30.778,21.49 36.319,17.783 42.755,15.012 C49.191,12.243 55.94,10.858 63.001,10.858 C70.061,10.858 76.811,12.242 83.247,15.012 C89.683,17.782 95.223,21.489 99.867,26.133 C104.511,30.777 108.218,36.317 110.988,42.754 C113.758,49.19 115.144,55.938 115.144,63 C115.145,70.061 113.758,76.811 110.988,83.246 L110.988,83.246 Z" id="Shape"></path>
                <path d="M89.479,71.066 C88.122,70.629 86.791,70.741 85.487,71.392 C84.182,72.042 83.313,73.076 82.881,74.488 C81.525,78.834 79.011,82.351 75.344,85.039 C71.679,87.727 67.564,89.072 63.001,89.072 C58.439,89.072 54.325,87.726 50.658,85.039 C46.992,82.35 44.48,78.834 43.122,74.488 C42.688,73.076 41.832,72.043 40.556,71.392 C39.28,70.741 37.963,70.629 36.605,71.066 C35.193,71.5 34.161,72.355 33.509,73.63 C32.857,74.906 32.748,76.226 33.183,77.582 C35.192,84.155 38.94,89.45 44.426,93.47 C49.912,97.49 56.104,99.498 63.002,99.498 C69.899,99.498 76.093,97.489 81.578,93.47 C87.061,89.449 90.809,84.156 92.819,77.582 C93.256,76.226 93.147,74.906 92.494,73.63 C91.84,72.355 90.835,71.501 89.479,71.066 L89.479,71.066 Z" id="Shape"></path>
                <path d="M42.143,52.572 C45.021,52.572 47.479,51.552 49.516,49.516 C51.553,47.48 52.572,45.022 52.572,42.143 C52.572,39.264 51.553,36.807 49.516,34.77 C47.479,32.733 45.021,31.714 42.143,31.714 C39.264,31.714 36.806,32.733 34.769,34.77 C32.733,36.807 31.714,39.264 31.714,42.143 C31.714,45.022 32.732,47.48 34.769,49.516 C36.807,51.553 39.264,52.572 42.143,52.572 L42.143,52.572 Z" id="Shape"></path>
                <path d="M83.857,31.714 C80.978,31.714 78.519,32.733 76.482,34.77 C74.447,36.807 73.426,39.264 73.426,42.143 C73.426,45.022 74.447,47.48 76.482,49.516 C78.519,51.553 80.978,52.572 83.857,52.572 C86.734,52.572 89.193,51.552 91.23,49.516 C93.267,47.48 94.286,45.022 94.286,42.143 C94.286,39.264 93.267,36.807 91.23,34.77 C89.193,32.733 86.734,31.714 83.857,31.714 L83.857,31.714 Z" id="Shape"></path>
            </g>
        </g>
    </g>
</svg>