<?xml version="1.0" encoding="UTF-8"?>
<svg width="19px" height="15px" viewBox="0 0 19 15" version="1.1" xmlns="http://www.w3.org/2000/svg" xmlns:xlink="http://www.w3.org/1999/xlink">
    <!-- Generator: Sketch 44.1 (41455) - http://www.bohemiancoding.com/sketch -->
    <title>privaicon</title>
    <desc>Created with Sketch.</desc>
    <defs></defs>
    <g id="Symbols" stroke="none" stroke-width="1" fill="none" fill-rule="evenodd">
        <g id="priva" fill="#000000">
            <g id="Group">
                <path d="M13.4121781,8.56226364 C13.9705959,7.74587855 14.25,6.84206582 14.25,5.851088 C14.25,5.57305236 14.2217603,5.27361927 14.1651507,4.95265745 L11.1964658,10.3215807 C12.1152329,9.96517527 12.8537603,9.37851745 13.4121781,8.56226364 L13.4121781,8.56226364 Z" id="Shape"></path>
                <path d="M13.8470959,1.16648945 C13.8542534,1.152312 13.8575068,1.12015018 13.8575068,1.07026655 C13.8575068,0.948970545 13.8010274,0.852878909 13.6876781,0.781204 C13.6665959,0.767026545 13.5977534,0.725938182 13.4810205,0.658070182 C13.3644178,0.590464727 13.2530205,0.524434545 13.147089,0.460242182 C13.0411575,0.396049818 12.9246849,0.330150909 12.7972808,0.262414182 C12.6700068,0.194677455 12.5605616,0.139411636 12.4688151,0.0966167273 C12.3768082,0.0538218182 12.3131712,0.0324243636 12.2779041,0.0324243636 C12.1506301,0.0324243636 12.051726,0.089528 11.9810616,0.203604 L11.408589,1.24105236 C10.7654521,1.11988764 10.1292123,1.05923964 9.50013014,1.05923964 C7.59869863,1.05923964 5.84575342,1.54416109 4.24116438,2.51387273 C2.63657534,3.48371564 1.29369178,4.80628836 0.212123288,6.48185345 C0.0706643836,6.703048 0,6.94905309 0,7.22 C0,7.49094691 0.0706643836,7.736952 0.212123288,7.957884 C0.834047945,8.93468436 1.5710137,9.80830436 2.42276027,10.5782189 C3.27450685,11.348396 4.20576712,11.964984 5.2165411,12.4286393 C4.9055137,12.9633131 4.75,13.2735105 4.75,13.3591004 C4.75,13.4874851 4.80660959,13.5872524 4.91969863,13.6585335 C5.7819863,14.1577636 6.25555479,14.4071818 6.34040411,14.4071818 C6.46754795,14.4071818 6.56658219,14.3499469 6.63724658,14.2358709 L7.15675342,13.2841436 C7.90608219,11.9366291 9.02278767,9.91516036 10.5072603,7.22 C11.9916027,4.52483964 13.1049247,2.50691527 13.8470959,1.16648945 L13.8470959,1.16648945 Z M5.88453425,11.2307756 C4.04673973,10.3965375 2.5375411,9.059656 1.35719863,7.22013127 C2.43160959,5.53734618 3.77813699,4.27883455 5.39678082,3.44472764 C4.96563699,4.186156 4.75,4.98836364 4.75,5.851088 C4.75,6.61404509 4.92308219,7.33762036 5.26950685,8.02220764 C5.61593151,8.70666364 6.0965274,9.273368 6.71155479,9.72258327 L5.88453425,11.2307756 L5.88453425,11.2307756 Z M9.5,3.62627782 C8.89213014,3.62627782 8.37249315,3.84379673 7.94134932,4.27870327 C7.51007534,4.71374109 7.29456849,5.23778182 7.29456849,5.85095673 C7.29456849,5.99365018 7.2449863,6.11481491 7.14608219,6.21471345 C7.04704795,6.314612 6.92693151,6.36449564 6.78560274,6.36449564 C6.64414384,6.36449564 6.5240274,6.31448073 6.42499315,6.21471345 C6.3259589,6.11481491 6.27650685,5.99351891 6.27650685,5.85095673 C6.27650685,4.95974618 6.59286986,4.19495127 7.22546575,3.55683455 C7.85806164,2.91871782 8.61610959,2.59959382 9.49973973,2.59959382 C9.64106849,2.59959382 9.76131507,2.64960873 9.86034932,2.749376 C9.95925342,2.84914327 10.0088356,2.97043927 10.0088356,3.11300145 C10.0088356,3.25569491 9.95925342,3.37685964 9.86060959,3.47649564 C9.76170548,3.57639418 9.64132877,3.62627782 9.5,3.62627782 Z" id="Shape"></path>
                <path d="M18.7878767,6.48185345 C18.3848425,5.80461745 17.8741849,5.14851636 17.2559041,4.513944 C16.6376233,3.87937164 15.9924041,3.33406473 15.3208973,2.87762945 L14.6529041,4.07549309 C15.8332466,4.89542255 16.8299658,5.94363527 17.6428014,7.21986873 C16.7876712,8.56029455 15.7219795,9.65484655 14.4463767,10.5032622 C13.1703836,11.3520716 11.7832534,11.8402749 10.284726,11.9685284 L9.5,13.3803665 C11.0693219,13.3803665 12.5518425,13.0416829 13.9478219,12.3643156 C15.3438014,11.6872109 16.5720342,10.7352211 17.6322603,9.50887127 C18.1270411,8.93127127 18.5122466,8.41431927 18.7880068,7.95801527 C18.9293356,7.71555455 19,7.46941818 19,7.22 C19,6.97045055 18.9293356,6.72444545 18.7878767,6.48185345 L18.7878767,6.48185345 Z" id="Shape"></path>
            </g>
        </g>
    </g>
</svg>