<?xml version="1.0" encoding="UTF-8"?>
<svg width="136px" height="136px" viewBox="0 0 136 136" version="1.1" xmlns="http://www.w3.org/2000/svg" xmlns:xlink="http://www.w3.org/1999/xlink">
    <!-- Generator: Sketch 44.1 (41455) - http://www.bohemiancoding.com/sketch -->
    <title>search19icon</title>
    <desc>Created with Sketch.</desc>
    <defs></defs>
    <g id="Symbols" stroke="none" stroke-width="1" fill="none" fill-rule="evenodd">
        <g id="search19" fill="#9B9B9B">
            <path d="M132.77,118.025 L104.825,90.08 C111.56,80.358 114.929,69.521 114.929,57.572 C114.929,49.805 113.421,42.377 110.406,35.289 C107.392,28.2 103.318,22.09 98.185,16.957 C93.052,11.824 86.943,7.75 79.855,4.736 C72.765,1.721 65.337,0.214 57.57,0.214 C49.803,0.214 42.375,1.721 35.287,4.736 C28.198,7.75 22.088,11.824 16.955,16.957 C11.822,22.09 7.748,28.201 4.734,35.289 C1.719,42.378 0.212,49.805 0.212,57.572 C0.212,65.339 1.719,72.765 4.734,79.855 C7.748,86.943 11.822,93.052 16.955,98.185 C22.088,103.319 28.199,107.392 35.287,110.407 C42.376,113.422 49.803,114.929 57.57,114.929 C69.521,114.929 80.357,111.56 90.079,104.825 L118.024,132.688 C119.979,134.752 122.421,135.784 125.356,135.784 C128.18,135.784 130.626,134.752 132.688,132.688 C134.752,130.625 135.784,128.18 135.784,125.356 C135.785,122.479 134.781,120.034 132.77,118.025 L132.77,118.025 Z M83.357,83.357 C76.214,90.5 67.619,94.071 57.57,94.071 C47.522,94.071 38.927,90.499 31.784,83.357 C24.641,76.214 21.07,67.62 21.07,57.571 C21.07,47.523 24.642,38.927 31.784,31.785 C38.926,24.642 47.522,21.071 57.57,21.071 C67.618,21.071 76.213,24.643 83.357,31.785 C90.5,38.927 94.072,47.523 94.072,57.571 C94.072,67.62 90.499,76.214 83.357,83.357 L83.357,83.357 Z" id="Shape"></path>
        </g>
    </g>
</svg>