<?xml version="1.0" encoding="utf-8"?>
<!-- Generator: Adobe Illustrator 16.0.0, SVG Export Plug-In . SVG Version: 6.00 Build 0)  -->
<!DOCTYPE svg PUBLIC "-//W3C//DTD SVG 1.1//EN" "http://www.w3.org/Graphics/SVG/1.1/DTD/svg11.dtd">
<svg version="1.1" id="Calque_1" xmlns="http://www.w3.org/2000/svg" xmlns:xlink="http://www.w3.org/1999/xlink" x="0px" y="0px"
	 width="76.543px" height="53.086px" viewBox="0 0 76.543 53.086" enable-background="new 0 0 76.543 53.086" xml:space="preserve">
<polygon fill="#2F2D2C" points="21.518,18.828 21.518,17.064 21.518,15.3 21.518,13.541 19.757,13.541 19.757,15.3 19.757,17.064 
	19.757,18.828 19.757,20.591 19.757,22.351 21.518,22.351 21.518,20.591 "/>
<polygon fill="#2F2D2C" points="25.046,13.541 26.809,13.541 26.809,11.777 25.046,11.777 23.283,11.777 21.518,11.777 
	21.518,13.541 23.283,13.541 "/>
<polygon fill="#2F2D2C" points="26.809,17.064 26.809,18.828 26.809,20.591 26.809,22.351 28.571,22.351 28.571,20.591 
	28.571,18.828 28.571,17.064 28.571,15.3 28.571,13.541 26.809,13.541 26.809,15.3 "/>
<polygon fill="#2F2D2C" points="26.809,22.351 25.046,22.351 23.283,22.351 21.518,22.351 21.518,24.115 23.283,24.115 
	25.046,24.115 26.809,24.115 "/>
<rect x="33.861" y="29.406" fill="#2F2D2C" width="1.762" height="1.762"/>
<polygon fill="#2F2D2C" points="32.098,27.644 30.335,27.644 28.571,27.644 28.571,29.406 30.335,29.406 32.098,29.406 
	33.861,29.406 33.861,27.644 "/>
<polygon fill="#2F2D2C" points="26.809,31.167 26.809,32.931 26.809,34.693 26.809,36.458 26.809,38.22 28.571,38.22 28.571,36.458 
	28.571,34.693 28.571,32.931 28.571,31.167 28.571,29.406 26.809,29.406 "/>
<polygon fill="#2F2D2C" points="35.623,36.458 35.623,34.693 35.623,32.931 33.861,32.931 32.098,32.931 32.098,34.693 
	33.861,34.693 33.861,36.458 33.861,38.22 35.623,38.22 "/>
<polygon fill="#2F2D2C" points="30.335,39.984 32.098,39.984 33.861,39.984 33.861,38.22 32.098,38.22 30.335,38.22 28.571,38.22 
	28.571,39.984 "/>
<polygon fill="#2F2D2C" points="62.064,24.115 63.829,24.115 65.592,24.115 65.592,22.351 63.829,22.351 62.064,22.351 
	60.303,22.351 60.303,24.115 "/>
<polygon fill="#2F2D2C" points="67.355,20.591 67.355,18.828 67.355,17.064 65.592,17.064 63.829,17.064 63.829,18.828 
	65.592,18.828 65.592,20.591 65.592,22.351 67.355,22.351 "/>
<polygon fill="#2F2D2C" points="37.385,17.064 37.385,18.828 37.385,20.591 37.385,22.351 39.149,22.351 39.149,20.591 
	39.149,18.828 39.149,17.064 39.149,15.3 39.149,13.541 37.385,13.541 37.385,15.3 "/>
<polygon fill="#2F2D2C" points="58.541,15.3 58.541,17.064 58.541,18.828 58.541,20.591 58.541,22.351 60.303,22.351 60.303,20.591 
	60.303,18.828 60.303,17.064 60.303,15.3 60.303,13.541 58.541,13.541 "/>
<polygon fill="#2F2D2C" points="63.829,11.777 62.064,11.777 60.303,11.777 60.303,13.541 62.064,13.541 63.829,13.541 
	65.592,13.541 65.592,11.777 "/>
<rect x="65.592" y="13.541" fill="#2F2D2C" width="1.763" height="1.76"/>
<polygon fill="#2F2D2C" points="53.253,27.644 51.488,27.644 49.726,27.644 47.962,27.644 47.962,29.406 49.726,29.406 
	51.488,29.406 51.488,31.167 51.488,32.931 51.488,34.693 51.488,36.458 51.488,38.22 51.488,39.984 53.253,39.984 53.253,38.22 
	53.253,36.458 53.253,34.693 53.253,32.931 53.253,31.167 53.253,29.406 55.014,29.406 56.777,29.406 56.777,27.644 55.014,27.644 
	"/>
<polygon fill="#2F2D2C" points="44.436,29.406 44.436,31.167 44.436,32.931 42.675,32.931 40.911,32.931 39.149,32.931 
	39.149,31.167 39.149,29.406 39.149,27.644 37.385,27.644 37.385,29.406 37.385,31.167 37.385,32.931 37.385,34.693 37.385,36.458 
	37.385,38.22 37.385,39.984 39.149,39.984 39.149,38.22 39.149,36.458 39.149,34.693 40.911,34.693 42.675,34.693 44.436,34.693 
	44.436,36.458 44.436,38.22 44.436,39.984 46.201,39.984 46.201,38.22 46.201,36.458 46.201,34.693 46.201,32.931 46.201,31.167 
	46.201,29.406 46.201,27.644 44.436,27.644 "/>
<polygon fill="#2F2D2C" points="51.488,13.541 49.726,13.541 49.726,11.777 47.962,11.777 47.962,13.541 47.962,15.3 47.962,17.064 
	47.962,18.828 47.962,20.591 47.962,22.351 47.962,24.115 49.726,24.115 49.726,22.351 49.726,20.591 49.726,18.828 49.726,17.064 
	51.488,17.064 51.488,15.3 "/>
<polygon fill="#2F2D2C" points="37.385,22.351 35.623,22.351 33.861,22.351 32.098,22.351 32.098,20.591 32.098,18.828 
	32.098,17.064 32.098,15.3 32.098,13.541 33.861,13.541 35.623,13.541 37.385,13.541 37.385,11.777 35.623,11.777 33.861,11.777 
	32.098,11.777 30.335,11.777 30.335,13.541 30.335,15.3 30.335,17.064 30.335,18.828 30.335,20.591 30.335,22.351 30.335,24.115 
	32.098,24.115 33.861,24.115 35.623,24.115 37.385,24.115 "/>
<rect x="51.488" y="17.064" fill="#2F2D2C" width="1.766" height="1.764"/>
<polygon fill="#2F2D2C" points="42.675,11.777 40.911,11.777 40.911,13.541 42.675,13.541 42.675,15.3 42.675,17.064 42.675,18.828 
	42.675,20.591 42.675,22.351 40.911,22.351 40.911,24.115 42.675,24.115 44.436,24.115 46.201,24.115 46.201,22.351 44.436,22.351 
	44.436,20.591 44.436,18.828 44.436,17.064 44.436,15.3 44.436,13.541 46.201,13.541 46.201,11.777 44.436,11.777 "/>
<polygon fill="#2F2D2C" points="55.014,13.541 55.014,15.3 55.014,17.064 55.014,18.828 53.253,18.828 53.253,20.591 53.253,22.351 
	55.014,22.351 55.014,24.115 56.777,24.115 56.777,22.351 56.777,20.591 56.777,18.828 56.777,17.064 56.777,15.3 56.777,13.541 
	56.777,11.777 55.014,11.777 "/>
<polygon fill="#2F2D2C" points="21.518,27.644 19.757,27.644 19.757,29.406 21.518,29.406 21.518,31.167 21.518,32.931 
	21.518,34.693 21.518,36.458 21.518,38.22 19.757,38.22 19.757,39.984 21.518,39.984 23.283,39.984 25.046,39.984 25.046,38.22 
	23.283,38.22 23.283,36.458 23.283,34.693 23.283,32.931 23.283,31.167 23.283,29.406 25.046,29.406 25.046,27.644 23.283,27.644 
	"/>
<polygon fill="#2F2D2C" points="62.064,34.693 63.829,34.693 65.592,34.693 65.592,32.931 63.829,32.931 62.064,32.931 
	60.303,32.931 60.303,34.693 "/>
<polygon fill="#2F2D2C" points="58.541,31.167 58.541,32.931 60.303,32.931 60.303,31.167 60.303,29.406 58.541,29.406 "/>
<rect x="65.592" y="29.406" fill="#2F2D2C" width="1.763" height="1.762"/>
<polygon fill="#2F2D2C" points="65.592,38.22 67.355,38.22 67.355,36.458 67.355,34.693 65.592,34.693 65.592,36.458 "/>
<polygon fill="#2F2D2C" points="63.829,27.644 62.064,27.644 60.303,27.644 60.303,29.406 62.064,29.406 63.829,29.406 
	65.592,29.406 65.592,27.644 "/>
<polygon fill="#2F2D2C" points="62.064,38.22 60.303,38.22 60.303,39.984 62.064,39.984 63.829,39.984 65.592,39.984 65.592,38.22 
	63.829,38.22 "/>
<rect x="58.541" y="36.458" fill="#2F2D2C" width="1.763" height="1.762"/>
<rect x="16.231" y="20.591" fill="#2F2D2C" width="1.762" height="1.76"/>
<rect x="16.231" y="13.541" fill="#2F2D2C" width="1.762" height="1.76"/>
<polygon fill="#2F2D2C" points="14.466,11.777 12.705,11.777 10.944,11.777 10.944,13.541 12.705,13.541 14.466,13.541 
	16.231,13.541 16.231,11.777 "/>
<polygon fill="#2F2D2C" points="12.705,32.931 10.944,32.931 10.944,31.167 10.944,29.406 12.705,29.406 14.466,29.406 
	16.231,29.406 16.231,27.644 14.466,27.644 12.705,27.644 10.944,27.644 9.179,27.644 9.179,29.406 9.179,31.167 9.179,32.931 
	9.179,34.693 9.179,36.458 9.179,38.22 9.179,39.984 10.944,39.984 10.944,38.22 10.944,36.458 10.944,34.693 12.705,34.693 
	12.705,36.458 14.466,36.458 14.466,34.693 16.231,34.693 16.231,32.931 14.466,32.931 "/>
<polygon fill="#2F2D2C" points="16.231,31.167 16.231,32.931 17.993,32.931 17.993,31.167 17.993,29.406 16.231,29.406 "/>
<polygon fill="#2F2D2C" points="9.179,15.3 9.179,17.064 9.179,18.828 9.179,20.591 9.179,22.351 10.944,22.351 10.944,20.591 
	10.944,18.828 10.944,17.064 10.944,15.3 10.944,13.541 9.179,13.541 "/>
<polygon fill="#2F2D2C" points="12.705,24.115 14.466,24.115 16.231,24.115 16.231,22.351 14.466,22.351 12.705,22.351 
	10.944,22.351 10.944,24.115 "/>
<rect x="16.231" y="38.22" fill="#2F2D2C" width="1.762" height="1.764"/>
<rect x="14.466" y="36.458" fill="#2F2D2C" width="1.765" height="1.762"/>
</svg>
